{
"cz-svatky":{
    "url": "http://svatky.adresa.info/json",
    "info": "http://svatky.adresa.info/",
    "auth": "None",
    "login": "None",
    "password": "None",
    "api_key": "None"
    },
"calendarindex":{
    "url": "https://www.calendarindex.com/api/v1/holidays",
    "info": "https://www.calendarindex.com/api-documentation",
    "auth": "api_key",
    "login": "None",
    "password": "None",
    "api_key": ""
    }
}
